{
  "project_info": {
    "project_number": "1002047323187",
    "firebase_url": "https://clock-2e0db.firebaseio.com",
    "project_id": "clock-2e0db",
    "storage_bucket": "clock-2e0db.appspot.com"
  },
  "client": [
    {
      "client_info": {
        "mobilesdk_app_id": "1:1002047323187:android:875dfa09ff790755",
        "android_client_info": {
          "package_name": "com.example.clock"
        }
      },
      "oauth_client": [
        {
          "client_id": "1002047323187-c62rfr0dsqiqqj16oolpf7rmvbn2inkl.apps.googleusercontent.com",
          "client_type": 1,
          "android_info": {
            "package_name": "com.example.clock",
            "certificate_hash": "56f268821a25e1fd82f3c9cb4d8f637fe2e00bfc"
          }
        },
        {
          "client_id": "1002047323187-o67fv6iva7td04q506pnutfn9k3qat9u.apps.googleusercontent.com",
          "client_type": 3
        }
      ],
      "api_key": [
        {
          "current_key": "AIzaSyDs5sjj_FjpAWnv3EG1qm8Nvk00jnVvDZ8"
        }
      ],
      "services": {
        "appinvite_service": {
          "other_platform_oauth_client": [
            {
              "client_id": "1002047323187-o67fv6iva7td04q506pnutfn9k3qat9u.apps.googleusercontent.com",
              "client_type": 3
            }
          ]
        }
      }
    }
  ],
  "configuration_version": "1"
}